------------------------------------------------------------------------
r1108123 | arnorehn | 2010-03-28 10:38:31 +1300 (Sun, 28 Mar 2010) | 2 lines

use the correct classname

------------------------------------------------------------------------
r1108301 | sedwards | 2010-03-29 03:53:33 +1300 (Mon, 29 Mar 2010) | 2 lines

Fix for building PyKDE4 nepomuk query classes.

------------------------------------------------------------------------
r1108450 | arnorehn | 2010-03-29 11:43:18 +1300 (Mon, 29 Mar 2010) | 2 lines

Don't generate accessors for d_ptrs.

------------------------------------------------------------------------
r1111776 | arnorehn | 2010-04-07 04:46:42 +1200 (Wed, 07 Apr 2010) | 2 lines

backport from trunk

------------------------------------------------------------------------
r1118522 | davidp | 2010-04-25 12:21:20 +1200 (Sun, 25 Apr 2010) | 2 lines

attica internal class

------------------------------------------------------------------------
r1118523 | davidp | 2010-04-25 12:25:38 +1200 (Sun, 25 Apr 2010) | 2 lines

Only exclude internal constructors

------------------------------------------------------------------------
