------------------------------------------------------------------------
r1134704 | scripty | 2010-06-05 14:02:41 +1200 (Sat, 05 Jun 2010) | 1 line

SVN_SILENT made messages (.desktop file)
------------------------------------------------------------------------
r1142371 | shaforo | 2010-06-25 06:33:44 +1200 (Fri, 25 Jun 2010) | 3 lines

port crash fix to branch
CCBUG: 238835

------------------------------------------------------------------------
