------------------------------------------------------------------------
r1097415 | scripty | 2010-03-01 23:32:37 +1300 (Mon, 01 Mar 2010) | 1 line

SVN_SILENT made messages (.desktop file)
------------------------------------------------------------------------
r1099535 | reed | 2010-03-06 07:32:45 +1300 (Sat, 06 Mar 2010) | 1 line

make sure -lX11 gets linked on OSX (can't have indirect libs)
------------------------------------------------------------------------
r1100947 | scripty | 2010-03-09 15:22:25 +1300 (Tue, 09 Mar 2010) | 1 line

SVN_SILENT made messages (.desktop file)
------------------------------------------------------------------------
r1103420 | scripty | 2010-03-15 15:33:40 +1300 (Mon, 15 Mar 2010) | 1 line

SVN_SILENT made messages (.desktop file)
------------------------------------------------------------------------
